Introduction to microbiomeutilities • microbiomeutilities
…
Get taxa summary by group(s)

For group specific abundances of taxa get_group_abundances.

library(microbiomeutilities)
data("zackular2014")
p0 <- zackular2014
get_group_abundances(p0, level = "Phylum", group="DiseaseState")
#> An additonal column Sam_rep with sample names is created for reference purpose
#> # A tibble: 33 x 4
#> # Groups:   DiseaseState [3]
#>    DiseaseState OTUID                        mean_abundance sd_abundance
#>    <fct>        <chr>                                 <dbl>        <dbl>
#>  1 CRC          p__                               0.00132       0.00201 
#>  2 CRC          p__Actinobacteria                 0.0235        0.0286  
#>  3 CRC          p__Bacteroidetes                  0.254         0.181   
#>  4 CRC          p__Cyanobacteria/Chloroplast      0.0000918     0.000193
#>  5 CRC          p__Deinococcus-Thermus            0.000919      0.00315 
#>  6 CRC          p__Euryarchaeota                  0.0227        0.0437  
#>  7 CRC          p__Firmicutes                     0.570         0.171   
#>  8 CRC          p__Fusobacteria                   0.0233        0.0870  
#>  9 CRC          p__Proteobacteria                 0.0623        0.0991  
#> 10 CRC          p__Synergistetes                  0.000445      0.00197 
#> # ... with 23 more rows
…
